MODE = Creating Trusted Application/Driver from ELF
KEY  = keySpTl.xml

###### ELF Header ######
Maschine Class                   = ELFCLASS32 (32-bit)
Maschine Data                    = ELFDATA2LSB (Little endian)
Header version                   = EV_CURRENT (Current version)
File Type                        = ET_EXEC (2: Executable)
Entry Addr.                      = 0x10cd
Program header offset            = 0x147c
Program header entry size        = 32
Program header number            = 1
Section header offset            = 0x149c
Section header entry size        = 40
Section header number            = 7
Section header string index      = 6

###### Program Header ######
Type		Offset		VirtAddr	FileSize	MemSize		Flags		Allign
LOAD		0x34		0x1000		5120		9544		RWE		4096

###### Section Header ######
Name			Type	Flags	Addr		Offset		Size		Link	Info	Align	Entry Size
                	0	0	0x0		0x0		0		0	0	0	0
.text           	1	6	0x1000		0x34		556		0	0	4096	0
.init           	1	6	0x122c		0x260		4		0	0	4	0
.data           	1	3	0x3000		0x1034		1024		0	0	4096	0
.bss            	8	3	0x3400		0x1434		4424		0	0	8	0
.note           	7	0	0x0		0x1434		32		0	0	4	0
.shstrtab       	3	0	0x0		0x1454		40		0	0	1	0

###### Trustlet header: ######
Magic                            = MCLF
Version                          = 2.4
Flags                            = Debuggable
MemType                          = external
Service type                     = Service Provider Trustlet
Service Type                     = Service Provider Trustlet
NumberOfInstances                = 10
UUID                             = 08080000000000000000000000000002
DriverID                         = 0
NumberOfThreads                  = 1
CodeAddr                         = 0x1000
CodeLength                       = 560
DataAddr                         = 0x3000
DataLength                       = 1024
BssLength                        = 4424
Entry Addr.                      = 0x10CD
Interface Version                = 0.0
permittedHwCfg                   = 0
permittedSuid                    = ffffffffffffffff0000000000000000
GPLevel                          = 1
attestationOffset                = 1632
textHeaderVersion                = 0.0
textHeaderLen                    = 60
InitHeapSize                     = 0
MaxHeapSize                      = 0
