MODE = Creating Trusted Application/Driver from ELF
KEY  = keySpTl.xml

###### ELF Header ######
Maschine Class                   = ELFCLASS32 (32-bit)
Maschine Data                    = ELFDATA2LSB (Little endian)
Header version                   = EV_CURRENT (Current version)
File Type                        = ET_EXEC (2: Executable)
Entry Addr.                      = 0x1575
Program header offset            = 0x1e07c
Program header entry size        = 32
Program header number            = 1
Section header offset            = 0x1e09c
Section header entry size        = 40
Section header number            = 7
Section header string index      = 6

###### Program Header ######
Type		Offset		VirtAddr	FileSize	MemSize		Flags		Allign
LOAD		0x34		0x1000		122880		126960		RWE		4096

###### Section Header ######
Name			Type	Flags	Addr		Offset		Size		Link	Info	Align	Entry Size
                	0	0	0x0		0x0		0		0	0	0	0
.text           	1	6	0x1000		0x34		61388		0	0	4096	0
.init           	1	6	0xffcc		0xf000		4		0	0	4	0
.data           	1	3	0x11000		0xf034		61440		0	0	4096	0
.bss            	8	3	0x20000		0x1e034		4080		0	0	8	0
.note           	7	0	0x0		0x1e034		32		0	0	4	0
.shstrtab       	3	0	0x0		0x1e054		40		0	0	1	0

###### Trustlet header: ######
Magic                            = MCLF
Version                          = 2.4
Flags                            = Debuggable
MemType                          = external
Service type                     = Service Provider Trustlet
Service Type                     = Service Provider Trustlet
NumberOfInstances                = 16
UUID                             = 4750005753005852414d000000000005
DriverID                         = 0
NumberOfThreads                  = 1
CodeAddr                         = 0x1000
CodeLength                       = 61392
DataAddr                         = 0x11000
DataLength                       = 61440
BssLength                        = 4080
Entry Addr.                      = 0x1575
Interface Version                = 0.0
permittedHwCfg                   = 0
permittedSuid                    = ffffffffffffffff0000000000000000
GPLevel                          = 1
attestationOffset                = 122880
textHeaderVersion                = 0.0
textHeaderLen                    = 60
InitHeapSize                     = 0
MaxHeapSize                      = 0
